{
  "images" : [
    {
      "idiom" : "universal",
      "filename" : "DESDE-Y-HASTA-140X40.png",
      "scale" : "1x"
    },
    {
      "idiom" : "universal",
      "filename" : "DESDE-Y-HASTA-140X40@2.png",
      "scale" : "2x"
    },
    {
      "idiom" : "universal",
      "scale" : "3x"
    }
  ],
  "info" : {
    "version" : 1,
    "author" : "xcode"
  }
}